cpu.vcd
$date
	Fri Feb 13 08:33:33 2026
$end
$version
	Icarus Verilog
$end
$timescale
	1ps
$end
$scope module tb_cpu_top $end
$var reg 1 ! clk $end
$var reg 1 " rst $end
$scope module uut $end
$var wire 32 # alu_in0 [31:0] $end
$var wire 1 ! clk $end
$var wire 32 $ pc_arch [31:0] $end
$var wire 32 % rd_wdata [31:0] $end
$var wire 1 " rst $end
$var wire 1 & take_jump_or_branch $end
$var wire 32 ' wb_from_alu [31:0] $end
$var wire 32 ( wb_from_mem [31:0] $end
$var wire 32 ) wb_from_pc4 [31:0] $end
$var wire 32 * wb_from_uimm [31:0] $end
$var wire 1 + zero_flag $end
$var wire 2 , wb_sel [1:0] $end
$var wire 32 - wb_from_auipc [31:0] $end
$var wire 32 . target_pc [31:0] $end
$var wire 32 / rs2_data [31:0] $end
$var wire 5 0 rs2_addr [4:0] $end
$var wire 32 1 rs1_data [31:0] $end
$var wire 5 2 rs1_addr [4:0] $end
$var wire 1 3 reg_write $end
$var wire 5 4 rd_addr [4:0] $end
$var wire 32 5 pc_aligned [31:0] $end
$var wire 7 6 opcode [6:0] $end
$var wire 1 7 mem_write $end
$var wire 32 8 mem_read_data [31:0] $end
$var wire 1 9 mem_read $end
$var wire 1 : lui_flag $end
$var wire 1 ; lt_unsigned $end
$var wire 1 < lt_signed $end
$var wire 1 = jalr_flag $end
$var wire 1 > jal_flag $end
$var wire 32 ? instruction [31:0] $end
$var wire 32 @ imm_u [31:0] $end
$var wire 32 A imm_s [31:0] $end
$var wire 32 B imm_j [31:0] $end
$var wire 32 C imm_i [31:0] $end
$var wire 32 D imm_b [31:0] $end
$var wire 7 E funct7 [6:0] $end
$var wire 3 F funct3 [2:0] $end
$var wire 32 G chosen_imm [31:0] $end
$var wire 3 H branch_type [2:0] $end
$var wire 1 I branch_taken $end
$var wire 1 J branch $end
$var wire 1 K auipc_flag $end
$var wire 1 L alu_src $end
$var wire 32 M alu_result [31:0] $end
$var wire 4 N alu_op [3:0] $end
$var wire 32 O alu_in1 [31:0] $end
$var wire 32 P PC_plus_4 [31:0] $end
$var reg 32 Q PC [31:0] $end
$var reg 32 R wb_mux_out [31:0] $end
$scope function evaluate_branch $end
$var reg 3 S brt [2:0] $end
$var reg 1 T lt_s $end
$var reg 1 U lt_u $end
$var reg 1 V z $end
$upscope $end
$scope module ALU $end
$var wire 32 W in0 [31:0] $end
$var wire 32 X in1 [31:0] $end
$var wire 4 Y alu_op [3:0] $end
$var reg 1 < lt_signed $end
$var reg 1 ; lt_unsigned $end
$var reg 32 Z result [31:0] $end
$var reg 1 + zero $end
$upscope $end
$scope module DATAMEM $end
$var wire 32 [ addr [31:0] $end
$var wire 1 ! clk $end
$var wire 1 " rst $end
$var wire 32 \ write_data [31:0] $end
$var wire 1 7 mem_write $end
$var wire 1 9 mem_read $end
$var reg 32 ] read_data [31:0] $end
$var integer 32 ^ i [31:0] $end
$upscope $end
$scope module DEC $end
$var wire 3 _ funct3 [2:0] $end
$var wire 7 ` funct7 [6:0] $end
$var wire 7 a opcode [6:0] $end
$var parameter 4 b ALU_ADD $end
$var parameter 4 c ALU_AND $end
$var parameter 4 d ALU_OR $end
$var parameter 4 e ALU_SLL $end
$var parameter 4 f ALU_SLT $end
$var parameter 4 g ALU_SLTU $end
$var parameter 4 h ALU_SRA $end
$var parameter 4 i ALU_SRL $end
$var parameter 4 j ALU_SUB $end
$var parameter 4 k ALU_XOR $end
$var reg 4 l alu_op [3:0] $end
$var reg 1 L alu_src $end
$var reg 1 K auipc_flag $end
$var reg 1 J branch $end
$var reg 3 m branch_type [2:0] $end
$var reg 1 > jal_flag $end
$var reg 1 = jalr_flag $end
$var reg 1 : lui_flag $end
$var reg 1 9 mem_read $end
$var reg 1 7 mem_write $end
$var reg 1 3 reg_write $end
$var reg 2 n wb_sel [1:0] $end
$upscope $end
$scope module IMEM $end
$var wire 8 o addr_word [7:0] $end
$var reg 32 p instruction [31:0] $end
$var integer 32 q i [31:0] $end
$upscope $end
$scope module IMMGEN $end
$var wire 32 r instr [31:0] $end
$var reg 32 s imm_b [31:0] $end
$var reg 32 t imm_i [31:0] $end
$var reg 32 u imm_j [31:0] $end
$var reg 32 v imm_s [31:0] $end
$var reg 32 w imm_u [31:0] $end
$upscope $end
$scope module REGFILE $end
$var wire 1 ! clk $end
$var wire 5 x raddr1 [4:0] $end
$var wire 5 y raddr2 [4:0] $end
$var wire 1 " rst $end
$var wire 5 z waddr [4:0] $end
$var wire 32 { wdata [31:0] $end
$var wire 1 3 we $end
$var reg 32 | rdata1 [31:0] $end
$var reg 32 } rdata2 [31:0] $end
$var integer 32 ~ i [31:0] $end
$upscope $end
$upscope $end
$scope task run_fibbonachi $end
$var integer 32 !" fib_actual [31:0] $end
$var integer 32 "" i [31:0] $end
$upscope $end
$upscope $end
$enddefinitions $end
$comment Show the parameter values. $end
$dumpall
b100 k
b1 j
b110 i
b111 h
b1001 g
b1000 f
b101 e
b11 d
b10 c
b0 b
$end
#0
$dumpvars
b100000000 ""
bx !"
b100000 ~
b0 }
b0 |
b0 {
b1 z
b0 y
b0 x
b0 w
b1 v
b0 u
b0 t
b100000000000 s
b10010011 r
b100000000 q
b10010011 p
b0 o
b0 n
b0 m
b0 l
b10011 a
b0 `
b0 _
b10000000000 ^
b0 ]
b0 \
b0 [
b0 Z
b0 Y
b0 X
b0 W
1V
0U
0T
b0 S
b0 R
b0 Q
b100 P
b0 O
b0 N
b0 M
1L
0K
0J
0I
b0 H
b0 G
b0 F
b0 E
b100000000000 D
b0 C
b0 B
b1 A
b0 @
b10010011 ?
0>
0=
0<
0;
0:
09
b0 8
07
b10011 6
b0 5
b1 4
13
b0 2
b0 1
b0 0
b0 /
b0 .
b0 -
b0 ,
1+
b0 *
b100 )
b0 (
b0 '
0&
b0 %
b0 $
b0 #
1"
0!
$end
#5000
b100000 ~
1!
#10000
0!
#15000
b100000 ~
1!
#20000
0!
0"
#25000
1U
1T
0V
b1 %
b1 {
b1 R
1;
1<
0+
b1 '
b1 M
b1 Z
b1 [
b1 O
b1 X
b1 G
b100 .
b100000000000 B
b100000000000 u
b100000000000000000000 *
b100000000000000000000 @
b100000000000000000000 w
b10 D
b10 s
b10 A
b10 v
b1 C
b1 t
b1 0
b1 y
b10 4
b10 z
b100000000000100010011 ?
b100000000000100010011 p
b100000000000100010011 r
b1 o
b100000000000000000100 -
b100 5
b1000 )
b1000 P
b100 $
b100 Q
1!
#30000
0!
#35000
b1010 %
b1010 {
b1010 R
b1010 '
b1010 M
b1010 Z
b1010 [
b1010 O
b1010 X
b1010 G
b1000 .
b1010 B
b1010 u
b101000000000000000000000 *
b101000000000000000000000 @
b101000000000000000000000 w
b100000000010 D
b100000000010 s
b11 A
b11 v
b1010 C
b1010 t
b1010 0
b1010 y
b11 4
b11 z
b101000000000000110010011 ?
b101000000000000110010011 p
b101000000000000110010011 r
b10 o
b101000000000000000001000 -
b1000 5
b1100 )
b1100 P
b1000 $
b1000 Q
1!
#40000
0!
#45000
0U
0T
1V
b0 %
b0 {
b0 R
0;
0<
1+
b0 '
b0 M
b0 Z
b0 [
b0 O
b0 X
b0 G
b1100 .
b0 B
b0 u
b0 *
b0 @
b0 w
b100 D
b100 s
b100 A
b100 v
b0 C
b0 t
b0 0
b0 y
b100 4
b100 z
b1000010011 ?
b1000010011 p
b1000010011 r
b11 o
b1100 -
b1100 5
b10000 )
b10000 P
b1100 $
b1100 Q
1!
#50000
0!
#55000
17
1L
03
b10000 .
b100010100000000000 B
b100010100000000000 u
b100100010000000000000 *
b100100010000000000000 @
b100100010000000000000 w
b0 D
b0 s
b0 A
b0 v
b1 C
b1 t
b1 0
b1 y
b100 2
b100 x
b0 4
b0 z
b10 F
b10 _
b100011 6
b100011 a
b100100010000000100011 ?
b100100010000000100011 p
b100100010000000100011 r
b100 o
b100100010000000010000 -
b10000 5
b10100 )
b10100 P
b10000 $
b10000 Q
1!
#60000
0!
#65000
1U
1T
0V
b1 %
b1 {
b1 R
b10 G
1;
1<
0+
b1 '
b1 M
b1 Z
b1 [
b1 O
b1 X
b1 /
b1 \
b1 }
13
07
0L
b10100 .
b1000000000000010 B
b1000000000000010 u
b1000001000000000000000 *
b1000001000000000000000 @
b1000001000000000000000 w
b110 D
b110 s
b110 A
b110 v
b10 C
b10 t
b10 0
b10 y
b1 2
b1 x
b110 4
b110 z
b0 F
b0 _
b110011 6
b110011 a
b1000001000001100110011 ?
b1000001000001100110011 p
b1000001000001100110011 r
b101 o
b1000001000000000010100 -
b10100 5
b11000 )
b11000 P
b10100 $
b10100 Q
1!
#70000
0!
#75000
0U
0T
0;
0<
b0 G
b1 %
b1 {
b1 R
b1 '
b1 M
b1 Z
b1 [
b0 O
b0 X
b0 /
b0 \
b0 }
b1 #
b1 W
b1 1
b1 |
1L
13
b11000 .
b10000000000000000 B
b10000000000000000 u
b10000000000000000 *
b10000000000000000 @
b10000000000000000 w
b100000000000 D
b100000000000 s
b1 A
b1 v
b0 C
b0 t
b0 0
b0 y
b10 2
b10 x
b1 4
b1 z
b10011 6
b10011 a
b10000000010010011 ?
b10000000010010011 p
b10000000010010011 r
b110 o
b10000000000011000 -
b11000 5
b11100 )
b11100 P
b11000 $
b11000 Q
1!
#80000
0!
#85000
b11100 .
b110000000000000000 B
b110000000000000000 u
b110000000000000000 *
b110000000000000000 @
b110000000000000000 w
b10 D
b10 s
b10 A
b10 v
b110 2
b110 x
b10 4
b10 z
b110000000100010011 ?
b110000000100010011 p
b110000000100010011 r
b111 o
b110000000000011100 -
b11100 5
b100000 )
b100000 P
b11100 $
b11100 Q
1!
#90000
0!
#95000
1U
1T
1;
1<
b100 O
b100 X
b100 G
0V
b100 %
b100 {
b100 R
0+
b100 '
b100 M
b100 Z
b100 [
b0 #
b0 W
b0 1
b0 |
b100000 .
b100000000000000100 B
b100000000000000100 u
b10000100000000000000000 *
b10000100000000000000000 @
b10000100000000000000000 w
b100 D
b100 s
b100 A
b100 v
b100 C
b100 t
b100 0
b100 y
b100 2
b100 x
b100 4
b100 z
b10000100000001000010011 ?
b10000100000001000010011 p
b10000100000001000010011 r
b1000 o
b10000100000000000100000 -
b100000 5
b100100 )
b100100 P
b100000 $
b100000 Q
1!
#100000
0!
#105000
b11111111111111111111111111111111 O
b11111111111111111111111111111111 X
b11111111111111111111111111111111 G
1L
13
b100100 .
b11111111111100011000111111111110 B
b11111111111100011000111111111110 u
b11111111111100011000000000000000 *
b11111111111100011000000000000000 @
b11111111111100011000000000000000 w
b11111111111111111111111111100010 D
b11111111111111111111111111100010 s
b11111111111111111111111111100011 A
b11111111111111111111111111100011 v
b11111111111111111111111111111111 C
b11111111111111111111111111111111 t
b11111 0
b11111 y
b11 2
b11 x
b11 4
b11 z
b1111111 E
b1111111 `
1U
0T
b11111111111100011000000110010011 ?
b11111111111100011000000110010011 p
b11111111111100011000000110010011 r
b1001 %
b1001 {
b1001 R
1;
0<
b1001 '
b1001 M
b1001 Z
b1001 [
b1001 o
b11111111111100011000000000100100 -
b100100 5
b0 /
b0 \
b0 }
b1010 #
b1010 W
b1010 1
b1010 |
b101000 )
b101000 P
b100100 $
b100100 Q
1!
#110000
0!
#115000
b11111111111111111111111111100000 G
1&
0U
1I
0;
b1 S
b0 O
b0 X
b1 N
b1 Y
b1 l
b1 H
b1 m
1J
0L
03
b10000 .
b1001 %
b1001 {
b1001 R
b11111111111100011001011111100000 B
b11111111111100011001011111100000 u
b11111110000000011001000000000000 *
b11111110000000011001000000000000 @
b11111110000000011001000000000000 w
b11111111111111111111111111101000 D
b11111111111111111111111111101000 s
b11111111111111111111111111101001 A
b11111111111111111111111111101001 v
b11111111111111111111111111100000 C
b11111111111111111111111111100000 t
b0 0
b0 y
b1001 4
b1001 z
b1 F
b1 _
b1100011 6
b1100011 a
b1001 '
b1001 M
b1001 Z
b1001 [
b11111110000000011001010011100011 ?
b11111110000000011001010011100011 p
b11111110000000011001010011100011 r
b1001 #
b1001 W
b1001 1
b1001 |
b1010 o
b11111110000000011001000000101000 -
b101000 5
b101100 )
b101100 P
b101000 $
b101000 Q
1!
#120000
0!
#125000
b0 G
0U
0;
0&
b100 %
b100 {
b100 R
b0 O
b0 X
b0 S
0I
b100 '
b100 M
b100 Z
b100 [
b1 /
b1 \
b1 }
b100 #
b100 W
b100 1
b100 |
17
1L
b0 H
b0 m
0J
b0 N
b0 Y
b0 l
b10000 .
b100010100000000000 B
b100010100000000000 u
b100100010000000000000 *
b100100010000000000000 @
b100100010000000000000 w
b0 D
b0 s
b0 A
b0 v
b1 C
b1 t
b1 0
b1 y
b100 2
b100 x
b0 4
b0 z
b0 E
b0 `
b10 F
b10 _
b100011 6
b100011 a
b100100010000000100011 ?
b100100010000000100011 p
b100100010000000100011 r
b100 o
b100100010000000010000 -
b10000 5
b10100 )
b10100 P
b10000 $
b10000 Q
1!
#130000
0!
#135000
b10 G
b10 %
b10 {
b10 R
b10 '
b10 M
b10 Z
b10 [
b1 O
b1 X
b1 #
b1 W
b1 1
b1 |
13
07
0L
b10100 .
b1000000000000010 B
b1000000000000010 u
b1000001000000000000000 *
b1000001000000000000000 @
b1000001000000000000000 w
b110 D
b110 s
b110 A
b110 v
b10 C
b10 t
b10 0
b10 y
b1 2
b1 x
b110 4
b110 z
b0 F
b0 _
b110011 6
b110011 a
b1000001000001100110011 ?
b1000001000001100110011 p
b1000001000001100110011 r
b101 o
b1000001000000000010100 -
b10100 5
b11000 )
b11000 P
b10100 $
b10100 Q
1!
#140000
0!
#145000
b0 G
0U
0T
b1 %
b1 {
b1 R
0;
0<
b1 '
b1 M
b1 Z
b1 [
b0 O
b0 X
b0 /
b0 \
b0 }
1L
13
b11000 .
b10000000000000000 B
b10000000000000000 u
b10000000000000000 *
b10000000000000000 @
b10000000000000000 w
b100000000000 D
b100000000000 s
b1 A
b1 v
b0 C
b0 t
b0 0
b0 y
b10 2
b10 x
b1 4
b1 z
b10011 6
b10011 a
b10000000010010011 ?
b10000000010010011 p
b10000000010010011 r
b110 o
b10000000000011000 -
b11000 5
b11100 )
b11100 P
b11000 $
b11000 Q
1!
#150000
0!
#155000
b10 %
b10 {
b10 R
b10 '
b10 M
b10 Z
b10 [
b10 #
b10 W
b10 1
b10 |
b11100 .
b110000000000000000 B
b110000000000000000 u
b110000000000000000 *
b110000000000000000 @
b110000000000000000 w
b10 D
b10 s
b10 A
b10 v
b110 2
b110 x
b10 4
b10 z
b110000000100010011 ?
b110000000100010011 p
b110000000100010011 r
b111 o
b110000000000011100 -
b11100 5
b100000 )
b100000 P
b11100 $
b11100 Q
1!
#160000
0!
#165000
b100 O
b100 X
b100 G
b1000 %
b1000 {
b1000 R
b1000 '
b1000 M
b1000 Z
b1000 [
b100 /
b100 \
b100 }
b100 #
b100 W
b100 1
b100 |
b100000 .
b100000000000000100 B
b100000000000000100 u
b10000100000000000000000 *
b10000100000000000000000 @
b10000100000000000000000 w
b100 D
b100 s
b100 A
b100 v
b100 C
b100 t
b100 0
b100 y
b100 2
b100 x
b100 4
b100 z
b10000100000001000010011 ?
b10000100000001000010011 p
b10000100000001000010011 r
b1000 o
b10000100000000000100000 -
b100000 5
b100100 )
b100100 P
b100000 $
b100000 Q
1!
#170000
0!
#175000
1U
1;
b11111111111111111111111111111111 O
b11111111111111111111111111111111 X
b11111111111111111111111111111111 G
1L
13
b100100 .
b1000 %
b1000 {
b1000 R
b11111111111100011000111111111110 B
b11111111111100011000111111111110 u
b11111111111100011000000000000000 *
b11111111111100011000000000000000 @
b11111111111100011000000000000000 w
b11111111111111111111111111100010 D
b11111111111111111111111111100010 s
b11111111111111111111111111100011 A
b11111111111111111111111111100011 v
b11111111111111111111111111111111 C
b11111111111111111111111111111111 t
b11111 0
b11111 y
b11 2
b11 x
b11 4
b11 z
b1111111 E
b1111111 `
b1000 '
b1000 M
b1000 Z
b1000 [
b11111111111100011000000110010011 ?
b11111111111100011000000110010011 p
b11111111111100011000000110010011 r
b0 /
b0 \
b0 }
b1001 #
b1001 W
b1001 1
b1001 |
b1001 o
b11111111111100011000000000100100 -
b100100 5
b101000 )
b101000 P
b100100 $
b100100 Q
1!
#180000
0!
#185000
b11111111111111111111111111100000 G
1&
0U
1I
0;
b1 S
b0 O
b0 X
b1 N
b1 Y
b1 l
b1 H
b1 m
1J
0L
03
b10000 .
b11111111111100011001011111100000 B
b11111111111100011001011111100000 u
b11111110000000011001000000000000 *
b11111110000000011001000000000000 @
b11111110000000011001000000000000 w
b11111111111111111111111111101000 D
b11111111111111111111111111101000 s
b11111111111111111111111111101001 A
b11111111111111111111111111101001 v
b11111111111111111111111111100000 C
b11111111111111111111111111100000 t
b0 0
b0 y
b1001 4
b1001 z
b1 F
b1 _
b1100011 6
b1100011 a
b11111110000000011001010011100011 ?
b11111110000000011001010011100011 p
b11111110000000011001010011100011 r
b1000 %
b1000 {
b1000 R
b1000 '
b1000 M
b1000 Z
b1000 [
b1010 o
b11111110000000011001000000101000 -
b101000 5
b1000 #
b1000 W
b1000 1
b1000 |
b101100 )
b101100 P
b101000 $
b101000 Q
1!
#190000
0!
#195000
b0 G
0U
b1000 %
b1000 {
b1000 R
0;
b1000 '
b1000 M
b1000 Z
b1000 [
0&
b0 O
b0 X
b0 S
0I
b1 /
b1 \
b1 }
17
1L
b0 H
b0 m
0J
b0 N
b0 Y
b0 l
b10000 .
b100010100000000000 B
b100010100000000000 u
b100100010000000000000 *
b100100010000000000000 @
b100100010000000000000 w
b0 D
b0 s
b0 A
b0 v
b1 C
b1 t
b1 0
b1 y
b100 2
b100 x
b0 4
b0 z
b0 E
b0 `
b10 F
b10 _
b100011 6
b100011 a
b100100010000000100011 ?
b100100010000000100011 p
b100100010000000100011 r
b100 o
b100100010000000010000 -
b10000 5
b10100 )
b10100 P
b10000 $
b10000 Q
1!
#200000
0!
#205000
b10 G
1U
1T
b11 %
b11 {
b11 R
1;
1<
b11 '
b11 M
b11 Z
b11 [
b10 O
b10 X
b10 /
b10 \
b10 }
b1 #
b1 W
b1 1
b1 |
13
07
0L
b10100 .
b1000000000000010 B
b1000000000000010 u
b1000001000000000000000 *
b1000001000000000000000 @
b1000001000000000000000 w
b110 D
b110 s
b110 A
b110 v
b10 C
b10 t
b10 0
b10 y
b1 2
b1 x
b110 4
b110 z
b0 F
b0 _
b110011 6
b110011 a
b1000001000001100110011 ?
b1000001000001100110011 p
b1000001000001100110011 r
b101 o
b1000001000000000010100 -
b10100 5
b11000 )
b11000 P
b10100 $
b10100 Q
1!
#210000
0!
#215000
b0 O
b0 X
b0 G
0U
0T
b10 %
b10 {
b10 R
0;
0<
b10 '
b10 M
b10 Z
b10 [
b0 /
b0 \
b0 }
b10 #
b10 W
b10 1
b10 |
1L
13
b11000 .
b10000000000000000 B
b10000000000000000 u
b10000000000000000 *
b10000000000000000 @
b10000000000000000 w
b100000000000 D
b100000000000 s
b1 A
b1 v
b0 C
b0 t
b0 0
b0 y
b10 2
b10 x
b1 4
b1 z
b10011 6
b10011 a
b10000000010010011 ?
b10000000010010011 p
b10000000010010011 r
b110 o
b10000000000011000 -
b11000 5
b11100 )
b11100 P
b11000 $
b11000 Q
1!
#220000
0!
#225000
b11 %
b11 {
b11 R
b11 '
b11 M
b11 Z
b11 [
b11 #
b11 W
b11 1
b11 |
b11100 .
b110000000000000000 B
b110000000000000000 u
b110000000000000000 *
b110000000000000000 @
b110000000000000000 w
b10 D
b10 s
b10 A
b10 v
b110 2
b110 x
b10 4
b10 z
b110000000100010011 ?
b110000000100010011 p
b110000000100010011 r
b111 o
b110000000000011100 -
b11100 5
b100000 )
b100000 P
b11100 $
b11100 Q
1!
#230000
0!
#235000
b100 O
b100 X
b100 G
b1100 %
b1100 {
b1100 R
b1100 '
b1100 M
b1100 Z
b1100 [
b1000 /
b1000 \
b1000 }
b1000 #
b1000 W
b1000 1
b1000 |
b100000 .
b100000000000000100 B
b100000000000000100 u
b10000100000000000000000 *
b10000100000000000000000 @
b10000100000000000000000 w
b100 D
b100 s
b100 A
b100 v
b100 C
b100 t
b100 0
b100 y
b100 2
b100 x
b100 4
b100 z
b10000100000001000010011 ?
b10000100000001000010011 p
b10000100000001000010011 r
b1000 o
b10000100000000000100000 -
b100000 5
b100100 )
b100100 P
b100000 $
b100000 Q
1!
#240000
0!
#245000
1U
1;
b11111111111111111111111111111111 O
b11111111111111111111111111111111 X
b11111111111111111111111111111111 G
1L
13
b100100 .
b11111111111100011000111111111110 B
b11111111111100011000111111111110 u
b11111111111100011000000000000000 *
b11111111111100011000000000000000 @
b11111111111100011000000000000000 w
b11111111111111111111111111100010 D
b11111111111111111111111111100010 s
b11111111111111111111111111100011 A
b11111111111111111111111111100011 v
b11111111111111111111111111111111 C
b11111111111111111111111111111111 t
b11111 0
b11111 y
b11 2
b11 x
b11 4
b11 z
b1111111 E
b1111111 `
b11111111111100011000000110010011 ?
b11111111111100011000000110010011 p
b11111111111100011000000110010011 r
b111 %
b111 {
b111 R
b111 '
b111 M
b111 Z
b111 [
b1001 o
b11111111111100011000000000100100 -
b100100 5
b0 /
b0 \
b0 }
b1000 #
b1000 W
b1000 1
b1000 |
b101000 )
b101000 P
b100100 $
b100100 Q
1!
#250000
0!
#255000
b11111111111111111111111111100000 G
1&
0U
1I
0;
b1 S
b0 O
b0 X
b1 N
b1 Y
b1 l
b1 H
b1 m
1J
0L
03
b10000 .
b111 %
b111 {
b111 R
b11111111111100011001011111100000 B
b11111111111100011001011111100000 u
b11111110000000011001000000000000 *
b11111110000000011001000000000000 @
b11111110000000011001000000000000 w
b11111111111111111111111111101000 D
b11111111111111111111111111101000 s
b11111111111111111111111111101001 A
b11111111111111111111111111101001 v
b11111111111111111111111111100000 C
b11111111111111111111111111100000 t
b0 0
b0 y
b1001 4
b1001 z
b1 F
b1 _
b1100011 6
b1100011 a
b111 '
b111 M
b111 Z
b111 [
b11111110000000011001010011100011 ?
b11111110000000011001010011100011 p
b11111110000000011001010011100011 r
b111 #
b111 W
b111 1
b111 |
b1010 o
b11111110000000011001000000101000 -
b101000 5
b101100 )
b101100 P
b101000 $
b101000 Q
1!
#260000
0!
#265000
b0 G
0U
0;
0&
b1100 %
b1100 {
b1100 R
b0 O
b0 X
b0 S
0I
b1100 '
b1100 M
b1100 Z
b1100 [
b10 /
b10 \
b10 }
b1100 #
b1100 W
b1100 1
b1100 |
17
1L
b0 H
b0 m
0J
b0 N
b0 Y
b0 l
b10000 .
b100010100000000000 B
b100010100000000000 u
b100100010000000000000 *
b100100010000000000000 @
b100100010000000000000 w
b0 D
b0 s
b0 A
b0 v
b1 C
b1 t
b1 0
b1 y
b100 2
b100 x
b0 4
b0 z
b0 E
b0 `
b10 F
b10 _
b100011 6
b100011 a
b100100010000000100011 ?
b100100010000000100011 p
b100100010000000100011 r
b100 o
b100100010000000010000 -
b10000 5
b10100 )
b10100 P
b10000 $
b10000 Q
1!
#270000
0!
#275000
b10 G
1U
1T
b101 %
b101 {
b101 R
1;
1<
b101 '
b101 M
b101 Z
b101 [
b11 O
b11 X
b11 /
b11 \
b11 }
b10 #
b10 W
b10 1
b10 |
13
07
0L
b10100 .
b1000000000000010 B
b1000000000000010 u
b1000001000000000000000 *
b1000001000000000000000 @
b1000001000000000000000 w
b110 D
b110 s
b110 A
b110 v
b10 C
b10 t
b10 0
b10 y
b1 2
b1 x
b110 4
b110 z
b0 F
b0 _
b110011 6
b110011 a
b1000001000001100110011 ?
b1000001000001100110011 p
b1000001000001100110011 r
b101 o
b1000001000000000010100 -
b10100 5
b11000 )
b11000 P
b10100 $
b10100 Q
1!
#280000
0!
#285000
b11 %
b11 {
b11 R
b11 '
b11 M
b11 Z
b11 [
b0 G
0U
0T
0;
0<
b0 O
b0 X
b0 /
b0 \
b0 }
b11 #
b11 W
b11 1
b11 |
1L
13
b11000 .
b10000000000000000 B
b10000000000000000 u
b10000000000000000 *
b10000000000000000 @
b10000000000000000 w
b100000000000 D
b100000000000 s
b1 A
b1 v
b0 C
b0 t
b0 0
b0 y
b10 2
b10 x
b1 4
b1 z
b10011 6
b10011 a
b10000000010010011 ?
b10000000010010011 p
b10000000010010011 r
b110 o
b10000000000011000 -
b11000 5
b11100 )
b11100 P
b11000 $
b11000 Q
1!
#290000
0!
#295000
b101 %
b101 {
b101 R
b101 '
b101 M
b101 Z
b101 [
b101 #
b101 W
b101 1
b101 |
b11100 .
b110000000000000000 B
b110000000000000000 u
b110000000000000000 *
b110000000000000000 @
b110000000000000000 w
b10 D
b10 s
b10 A
b10 v
b110 2
b110 x
b10 4
b10 z
b110000000100010011 ?
b110000000100010011 p
b110000000100010011 r
b111 o
b110000000000011100 -
b11100 5
b100000 )
b100000 P
b11100 $
b11100 Q
1!
#300000
0!
#305000
b100 O
b100 X
b100 G
b10000 %
b10000 {
b10000 R
b10000 '
b10000 M
b10000 Z
b10000 [
b1100 /
b1100 \
b1100 }
b1100 #
b1100 W
b1100 1
b1100 |
b100000 .
b100000000000000100 B
b100000000000000100 u
b10000100000000000000000 *
b10000100000000000000000 @
b10000100000000000000000 w
b100 D
b100 s
b100 A
b100 v
b100 C
b100 t
b100 0
b100 y
b100 2
b100 x
b100 4
b100 z
b10000100000001000010011 ?
b10000100000001000010011 p
b10000100000001000010011 r
b1000 o
b10000100000000000100000 -
b100000 5
b100100 )
b100100 P
b100000 $
b100000 Q
1!
#310000
0!
#315000
1U
1;
b11111111111111111111111111111111 O
b11111111111111111111111111111111 X
b11111111111111111111111111111111 G
1L
13
b100100 .
b110 %
b110 {
b110 R
b11111111111100011000111111111110 B
b11111111111100011000111111111110 u
b11111111111100011000000000000000 *
b11111111111100011000000000000000 @
b11111111111100011000000000000000 w
b11111111111111111111111111100010 D
b11111111111111111111111111100010 s
b11111111111111111111111111100011 A
b11111111111111111111111111100011 v
b11111111111111111111111111111111 C
b11111111111111111111111111111111 t
b11111 0
b11111 y
b11 2
b11 x
b11 4
b11 z
b1111111 E
b1111111 `
b110 '
b110 M
b110 Z
b110 [
b11111111111100011000000110010011 ?
b11111111111100011000000110010011 p
b11111111111100011000000110010011 r
b0 /
b0 \
b0 }
b111 #
b111 W
b111 1
b111 |
b1001 o
b11111111111100011000000000100100 -
b100100 5
b101000 )
b101000 P
b100100 $
b100100 Q
1!
#320000
0!
#325000
b11111111111111111111111111100000 G
1&
0U
1I
0;
b1 S
b0 O
b0 X
b1 N
b1 Y
b1 l
b1 H
b1 m
1J
0L
03
b10000 .
b11111111111100011001011111100000 B
b11111111111100011001011111100000 u
b11111110000000011001000000000000 *
b11111110000000011001000000000000 @
b11111110000000011001000000000000 w
b11111111111111111111111111101000 D
b11111111111111111111111111101000 s
b11111111111111111111111111101001 A
b11111111111111111111111111101001 v
b11111111111111111111111111100000 C
b11111111111111111111111111100000 t
b0 0
b0 y
b1001 4
b1001 z
b1 F
b1 _
b1100011 6
b1100011 a
b11111110000000011001010011100011 ?
b11111110000000011001010011100011 p
b11111110000000011001010011100011 r
b110 %
b110 {
b110 R
b110 '
b110 M
b110 Z
b110 [
b1010 o
b11111110000000011001000000101000 -
b101000 5
b110 #
b110 W
b110 1
b110 |
b101100 )
b101100 P
b101000 $
b101000 Q
1!
#330000
0!
#335000
b0 G
0U
0;
0&
b10000 %
b10000 {
b10000 R
b0 O
b0 X
b0 S
0I
b10000 '
b10000 M
b10000 Z
b10000 [
b11 /
b11 \
b11 }
b10000 #
b10000 W
b10000 1
b10000 |
17
1L
b0 H
b0 m
0J
b0 N
b0 Y
b0 l
b10000 .
b100010100000000000 B
b100010100000000000 u
b100100010000000000000 *
b100100010000000000000 @
b100100010000000000000 w
b0 D
b0 s
b0 A
b0 v
b1 C
b1 t
b1 0
b1 y
b100 2
b100 x
b0 4
b0 z
b0 E
b0 `
b10 F
b10 _
b100011 6
b100011 a
b100100010000000100011 ?
b100100010000000100011 p
b100100010000000100011 r
b100 o
b100100010000000010000 -
b10000 5
b10100 )
b10100 P
b10000 $
b10000 Q
1!
#340000
0!
#345000
b10 G
1U
1T
b1000 %
b1000 {
b1000 R
1;
1<
b1000 '
b1000 M
b1000 Z
b1000 [
b101 O
b101 X
b101 /
b101 \
b101 }
b11 #
b11 W
b11 1
b11 |
13
07
0L
b10100 .
b1000000000000010 B
b1000000000000010 u
b1000001000000000000000 *
b1000001000000000000000 @
b1000001000000000000000 w
b110 D
b110 s
b110 A
b110 v
b10 C
b10 t
b10 0
b10 y
b1 2
b1 x
b110 4
b110 z
b0 F
b0 _
b110011 6
b110011 a
b1000001000001100110011 ?
b1000001000001100110011 p
b1000001000001100110011 r
b101 o
b1000001000000000010100 -
b10100 5
b11000 )
b11000 P
b10100 $
b10100 Q
1!
#350000
0!
#355000
b0 G
0U
0T
b101 %
b101 {
b101 R
0;
0<
b101 '
b101 M
b101 Z
b101 [
b0 O
b0 X
b0 /
b0 \
b0 }
b101 #
b101 W
b101 1
b101 |
1L
13
b11000 .
b10000000000000000 B
b10000000000000000 u
b10000000000000000 *
b10000000000000000 @
b10000000000000000 w
b100000000000 D
b100000000000 s
b1 A
b1 v
b0 C
b0 t
b0 0
b0 y
b10 2
b10 x
b1 4
b1 z
b10011 6
b10011 a
b10000000010010011 ?
b10000000010010011 p
b10000000010010011 r
b110 o
b10000000000011000 -
b11000 5
b11100 )
b11100 P
b11000 $
b11000 Q
1!
#360000
0!
