cpu_wave.vcd
$date
	Fri Jan 30 23:04:01 2026
$end
$version
	Icarus Verilog
$end
$timescale
	1ps
$end
$scope module tb_cpu_top $end
$var reg 1 ! clk $end
$var reg 1 " rst $end
$scope module uut $end
$var wire 32 # alu_in0 [31:0] $end
$var wire 1 ! clk $end
$var wire 32 $ pc_arch [31:0] $end
$var wire 32 % rd_wdata [31:0] $end
$var wire 1 " rst $end
$var wire 1 & take_jump_or_branch $end
$var wire 32 ' wb_from_alu [31:0] $end
$var wire 32 ( wb_from_mem [31:0] $end
$var wire 32 ) wb_from_pc4 [31:0] $end
$var wire 32 * wb_from_uimm [31:0] $end
$var wire 1 + zero_flag $end
$var wire 2 , wb_sel [1:0] $end
$var wire 32 - wb_from_auipc [31:0] $end
$var wire 32 . target_pc [31:0] $end
$var wire 32 / rs2_data [31:0] $end
$var wire 5 0 rs2_addr [4:0] $end
$var wire 32 1 rs1_data [31:0] $end
$var wire 5 2 rs1_addr [4:0] $end
$var wire 1 3 reg_write $end
$var wire 5 4 rd_addr [4:0] $end
$var wire 32 5 pc_aligned [31:0] $end
$var wire 7 6 opcode [6:0] $end
$var wire 1 7 mem_write $end
$var wire 32 8 mem_read_data [31:0] $end
$var wire 1 9 mem_read $end
$var wire 1 : lui_flag $end
$var wire 1 ; lt_unsigned $end
$var wire 1 < lt_signed $end
$var wire 1 = jalr_flag $end
$var wire 1 > jal_flag $end
$var wire 32 ? instruction [31:0] $end
$var wire 32 @ imm_u [31:0] $end
$var wire 32 A imm_s [31:0] $end
$var wire 32 B imm_j [31:0] $end
$var wire 32 C imm_i [31:0] $end
$var wire 32 D imm_b [31:0] $end
$var wire 7 E funct7 [6:0] $end
$var wire 3 F funct3 [2:0] $end
$var wire 32 G chosen_imm [31:0] $end
$var wire 3 H branch_type [2:0] $end
$var wire 1 I branch_taken $end
$var wire 1 J branch $end
$var wire 1 K auipc_flag $end
$var wire 1 L alu_src $end
$var wire 32 M alu_result [31:0] $end
$var wire 4 N alu_op [3:0] $end
$var wire 32 O alu_in1 [31:0] $end
$var wire 32 P PC_plus_4 [31:0] $end
$var reg 32 Q PC [31:0] $end
$var reg 32 R wb_mux_out [31:0] $end
$scope function evaluate_branch $end
$var reg 3 S brt [2:0] $end
$var reg 1 T lt_s $end
$var reg 1 U lt_u $end
$var reg 1 V z $end
$upscope $end
$scope module ALU $end
$var wire 32 W in0 [31:0] $end
$var wire 32 X in1 [31:0] $end
$var wire 4 Y alu_op [3:0] $end
$var reg 1 < lt_signed $end
$var reg 1 ; lt_unsigned $end
$var reg 32 Z result [31:0] $end
$var reg 1 + zero $end
$upscope $end
$scope module DATAMEM $end
$var wire 32 [ addr [31:0] $end
$var wire 1 ! clk $end
$var wire 1 " rst $end
$var wire 32 \ write_data [31:0] $end
$var wire 1 7 mem_write $end
$var wire 1 9 mem_read $end
$var reg 32 ] read_data [31:0] $end
$var integer 32 ^ i [31:0] $end
$upscope $end
$scope module DEC $end
$var wire 3 _ funct3 [2:0] $end
$var wire 7 ` funct7 [6:0] $end
$var wire 7 a opcode [6:0] $end
$var parameter 4 b ALU_ADD $end
$var parameter 4 c ALU_AND $end
$var parameter 4 d ALU_OR $end
$var parameter 4 e ALU_SLL $end
$var parameter 4 f ALU_SLT $end
$var parameter 4 g ALU_SLTU $end
$var parameter 4 h ALU_SRA $end
$var parameter 4 i ALU_SRL $end
$var parameter 4 j ALU_SUB $end
$var parameter 4 k ALU_XOR $end
$var reg 4 l alu_op [3:0] $end
$var reg 1 L alu_src $end
$var reg 1 K auipc_flag $end
$var reg 1 J branch $end
$var reg 3 m branch_type [2:0] $end
$var reg 1 > jal_flag $end
$var reg 1 = jalr_flag $end
$var reg 1 : lui_flag $end
$var reg 1 9 mem_read $end
$var reg 1 7 mem_write $end
$var reg 1 3 reg_write $end
$var reg 2 n wb_sel [1:0] $end
$upscope $end
$scope module IMEM $end
$var wire 8 o addr_word [7:0] $end
$var reg 32 p instruction [31:0] $end
$var integer 32 q i [31:0] $end
$upscope $end
$scope module IMMGEN $end
$var wire 32 r instr [31:0] $end
$var reg 32 s imm_b [31:0] $end
$var reg 32 t imm_i [31:0] $end
$var reg 32 u imm_j [31:0] $end
$var reg 32 v imm_s [31:0] $end
$var reg 32 w imm_u [31:0] $end
$upscope $end
$scope module REGFILE $end
$var wire 1 ! clk $end
$var wire 5 x raddr1 [4:0] $end
$var wire 5 y raddr2 [4:0] $end
$var wire 1 " rst $end
$var wire 5 z waddr [4:0] $end
$var wire 32 { wdata [31:0] $end
$var wire 1 3 we $end
$var reg 32 | rdata1 [31:0] $end
$var reg 32 } rdata2 [31:0] $end
$var integer 32 ~ i [31:0] $end
$upscope $end
$upscope $end
$scope task assert_mem $end
$var integer 32 !" actual [31:0] $end
$var integer 32 "" expected [31:0] $end
$var integer 32 #" word_addr [31:0] $end
$upscope $end
$scope task assert_reg $end
$var integer 32 $" actual [31:0] $end
$var integer 32 %" expected [31:0] $end
$var integer 32 &" regno [31:0] $end
$upscope $end
$scope task check_results $end
$upscope $end
$upscope $end
$enddefinitions $end
$comment Show the parameter values. $end
$dumpall
b100 k
b1 j
b110 i
b111 h
b1001 g
b1000 f
b101 e
b11 d
b10 c
b0 b
$end
#0
$dumpvars
bx &"
bx %"
bx $"
bx #"
bx ""
bx !"
b100000 ~
b0 }
b0 |
b1010 {
b1 z
b1010 y
b0 x
b101000000000000000000000 w
b1 v
b1010 u
b1010 t
b100000000000 s
b101000000000000010010011 r
b100000000 q
b101000000000000010010011 p
b0 o
b0 n
b0 m
b0 l
b10011 a
b0 `
b0 _
b10000000000 ^
b0 ]
b0 \
b1010 [
b1010 Z
b0 Y
b1010 X
b0 W
0V
1U
1T
b0 S
b1010 R
b0 Q
b100 P
b1010 O
b0 N
b1010 M
1L
0K
0J
0I
b0 H
b1010 G
b0 F
b0 E
b100000000000 D
b1010 C
b1010 B
b1 A
b101000000000000000000000 @
b101000000000000010010011 ?
0>
0=
1<
1;
0:
09
b0 8
07
b10011 6
b0 5
b1 4
13
b0 2
b0 1
b1010 0
b0 /
b0 .
b101000000000000000000000 -
b0 ,
0+
b101000000000000000000000 *
b100 )
b0 (
b1010 '
0&
b1010 %
b0 $
b0 #
1"
0!
$end
#5000
b100000 ~
1!
#10000
0!
#15000
b100000 ~
1!
#20000
0!
0"
#25000
b11 %
b11 {
b11 R
b11 '
b11 M
b11 Z
b11 [
b11 O
b11 X
b11 G
b100 .
b100000000010 B
b100000000010 u
b1100000000000000000000 *
b1100000000000000000000 @
b1100000000000000000000 w
b10 D
b10 s
b10 A
b10 v
b11 C
b11 t
b11 0
b11 y
b10 4
b10 z
b1100000000000100010011 ?
b1100000000000100010011 p
b1100000000000100010011 r
b1 o
b1100000000000000000100 -
b100 5
b1000 )
b1000 P
b100 $
b100 Q
1!
#30000
0!
#35000
0T
b11111111111111111111111111111011 %
b11111111111111111111111111111011 {
b11111111111111111111111111111011 R
0<
b11111111111111111111111111111011 '
b11111111111111111111111111111011 M
b11111111111111111111111111111011 Z
b11111111111111111111111111111011 [
b11111111111111111111111111111011 O
b11111111111111111111111111111011 X
b11111111111111111111111111111011 G
1L
13
b1000 .
b11111111111100000000111111111010 B
b11111111111100000000111111111010 u
b11111111101100000000000000000000 *
b11111111101100000000000000000000 @
b11111111101100000000000000000000 w
b11111111111111111111111111100010 D
b11111111111111111111111111100010 s
b11111111111111111111111111100011 A
b11111111111111111111111111100011 v
b11111111111111111111111111111011 C
b11111111111111111111111111111011 t
b11011 0
b11011 y
b11 4
b11 z
b1111111 E
b1111111 `
b11111111101100000000000110010011 ?
b11111111101100000000000110010011 p
b11111111101100000000000110010011 r
b10 o
b11111111101100000000000000001000 -
b1000 5
b1100 )
b1100 P
b1000 $
b1000 Q
1!
#40000
0!
#45000
1T
b10 %
b10 {
b10 R
1<
b10 '
b10 M
b10 Z
b10 [
b10 O
b10 X
b10 G
b11 /
b11 \
b11 }
1L
13
b1100 .
b10 B
b10 u
b1000000000000000000000 *
b1000000000000000000000 @
b1000000000000000000000 w
b100 D
b100 s
b100 A
b100 v
b10 C
b10 t
b10 0
b10 y
b100 4
b100 z
b0 E
b0 `
b1000000000001000010011 ?
b1000000000001000010011 p
b1000000000001000010011 r
b11 o
b1000000000000000001100 -
b1100 5
b10000 )
b10000 P
b1100 $
b1100 Q
1!
#50000
0!
#55000
0U
0T
b1101 %
b1101 {
b1101 R
0;
0<
b1101 '
b1101 M
b1101 Z
b1101 [
b11 O
b11 X
b1010 #
b1010 W
b1010 1
b1010 |
0L
13
b10000 .
b1000000000000010 B
b1000000000000010 u
b1000001000000000000000 *
b1000001000000000000000 @
b1000001000000000000000 w
b100000000100 D
b100000000100 s
b101 A
b101 v
b1 2
b1 x
b101 4
b101 z
b110011 6
b110011 a
b1000001000001010110011 ?
b1000001000001010110011 p
b1000001000001010110011 r
b100 o
b1000001000000000010000 -
b10000 5
b10100 )
b10100 P
b10000 $
b10000 Q
1!
#60000
0!
#65000
b10000000010 G
b111 %
b111 {
b111 R
b111 '
b111 M
b111 Z
b111 [
b1 N
b1 Y
b1 l
13
b10100 .
b1000010000000010 B
b1000010000000010 u
b1000000001000001000000000000000 *
b1000000001000001000000000000000 @
b1000000001000001000000000000000 w
b10000000110 D
b10000000110 s
b10000000110 A
b10000000110 v
b10000000010 C
b10000000010 t
b110 4
b110 z
b100000 E
b100000 `
b1000000001000001000001100110011 ?
b1000000001000001000001100110011 p
b1000000001000001000001100110011 r
b101 o
b1000000001000001000000000010100 -
b10100 5
b11000 )
b11000 P
b10100 $
b10100 Q
1!
#70000
0!
#75000
b10 G
b10 %
b10 {
b10 R
b10 '
b10 M
b10 Z
b10 [
b10 N
b10 Y
b10 l
13
b11000 .
b1111000000000010 B
b1111000000000010 u
b1000001111000000000000 *
b1000001111000000000000 @
b1000001111000000000000 w
b100000000110 D
b100000000110 s
b111 A
b111 v
b10 C
b10 t
b111 4
b111 z
b0 E
b0 `
b111 F
b111 _
b1000001111001110110011 ?
b1000001111001110110011 p
b1000001111001110110011 r
b110 o
b1000001111000000011000 -
b11000 5
b11100 )
b11100 P
b11000 $
b11000 Q
1!
#80000
0!
#85000
b1011 %
b1011 {
b1011 R
b1011 '
b1011 M
b1011 Z
b1011 [
b11 N
b11 Y
b11 l
13
b11100 .
b1110000000000010 B
b1110000000000010 u
b1000001110000000000000 *
b1000001110000000000000 @
b1000001110000000000000 w
b1000 D
b1000 s
b1000 A
b1000 v
b1000 4
b1000 z
b110 F
b110 _
b1000001110010000110011 ?
b1000001110010000110011 p
b1000001110010000110011 r
b111 o
b1000001110000000011100 -
b11100 5
b100000 )
b100000 P
b11100 $
b11100 Q
1!
#90000
0!
#95000
b1001 %
b1001 {
b1001 R
b1001 '
b1001 M
b1001 Z
b1001 [
b100 N
b100 Y
b100 l
13
b100000 .
b1100000000000010 B
b1100000000000010 u
b1000001100000000000000 *
b1000001100000000000000 @
b1000001100000000000000 w
b100000001000 D
b100000001000 s
b1001 A
b1001 v
b1001 4
b1001 z
b100 F
b100 _
b1000001100010010110011 ?
b1000001100010010110011 p
b1000001100010010110011 r
b1000 o
b1000001100000000100000 -
b100000 5
b100100 )
b100100 P
b100000 $
b100000 Q
1!
#100000
0!
#105000
b1 G
1U
1T
1;
1<
0V
b1 %
b1 {
b1 R
b1010 O
b1010 X
0+
b1 '
b1 M
b1 Z
b1 [
b1010 /
b1010 \
b1010 }
b11 #
b11 W
b11 1
b11 |
b1000 N
b1000 Y
b1000 l
13
b100100 .
b10010100000000000 B
b10010100000000000 u
b100010010000000000000 *
b100010010000000000000 @
b100010010000000000000 w
b1010 D
b1010 s
b1010 A
b1010 v
b1 C
b1 t
b1 0
b1 y
b10 2
b10 x
b1010 4
b1010 z
b10 F
b10 _
b100010010010100110011 ?
b100010010010100110011 p
b100010010010100110011 r
b1001 o
b100010010000000100100 -
b100100 5
b101000 )
b101000 P
b100100 $
b100100 Q
1!
#110000
0!
#115000
0U
1V
b0 %
b0 {
b0 R
0;
1+
b0 '
b0 M
b0 Z
b0 [
b11111111111111111111111111111011 #
b11111111111111111111111111111011 W
b11111111111111111111111111111011 1
b11111111111111111111111111111011 |
b1001 N
b1001 Y
b1001 l
13
b101000 .
b11011100000000000 B
b11011100000000000 u
b100011011000000000000 *
b100011011000000000000 @
b100011011000000000000 w
b100000001010 D
b100000001010 s
b1011 A
b1011 v
b11 2
b11 x
b1011 4
b1011 z
b11 F
b11 _
b100011011010110110011 ?
b100011011010110110011 p
b100011011010110110011 r
b1010 o
b100011011000000101000 -
b101000 5
b101100 )
b101100 P
b101000 $
b101000 Q
1!
#120000
0!
#125000
b100 G
0T
0V
b101000 %
b101000 {
b101000 R
b10 O
b10 X
0<
0+
b101000 '
b101000 M
b101000 Z
b101000 [
b10 /
b10 \
b10 }
b1010 #
b1010 W
b1010 1
b1010 |
b101 N
b101 Y
b101 l
13
b101100 .
b1001000000000100 B
b1001000000000100 u
b10000001001000000000000 *
b10000001001000000000000 @
b10000001001000000000000 w
b1100 D
b1100 s
b1100 A
b1100 v
b100 C
b100 t
b100 0
b100 y
b1 2
b1 x
b1100 4
b1100 z
b1 F
b1 _
b10000001001011000110011 ?
b10000001001011000110011 p
b10000001001011000110011 r
b1011 o
b10000001001000000101100 -
b101100 5
b110000 )
b110000 P
b101100 $
b101100 Q
1!
#130000
0!
#135000
b10 %
b10 {
b10 R
b10 '
b10 M
b10 Z
b10 [
b110 N
b110 Y
b110 l
13
b110000 .
b1101000000000100 B
b1101000000000100 u
b10000001101000000000000 *
b10000001101000000000000 @
b10000001101000000000000 w
b100000001100 D
b100000001100 s
b1101 A
b1101 v
b1101 4
b1101 z
b101 F
b101 _
b10000001101011010110011 ?
b10000001101011010110011 p
b10000001101011010110011 r
b1100 o
b10000001101000000110000 -
b110000 5
b110100 )
b110100 P
b110000 $
b110000 Q
1!
#140000
0!
#145000
b10000000100 G
1T
b11111111111111111111111111111110 %
b11111111111111111111111111111110 {
b11111111111111111111111111111110 R
1<
b11111111111111111111111111111110 '
b11111111111111111111111111111110 M
b11111111111111111111111111111110 Z
b11111111111111111111111111111110 [
b11111111111111111111111111111011 #
b11111111111111111111111111111011 W
b11111111111111111111111111111011 1
b11111111111111111111111111111011 |
b111 N
b111 Y
b111 l
13
b110100 .
b11101010000000100 B
b11101010000000100 u
b1000000010000011101000000000000 *
b1000000010000011101000000000000 @
b1000000010000011101000000000000 w
b10000001110 D
b10000001110 s
b10000001110 A
b10000001110 v
b10000000100 C
b10000000100 t
b11 2
b11 x
b1110 4
b1110 z
b100000 E
b100000 `
b1000000010000011101011100110011 ?
b1000000010000011101011100110011 p
b1000000010000011101011100110011 r
b1101 o
b1000000010000011101000000110100 -
b110100 5
b111000 )
b111000 P
b110100 $
b110100 Q
1!
#150000
0!
#155000
0T
1V
0<
1+
b0 G
0U
b0 %
b0 {
b0 R
b0 O
b0 X
0;
b0 '
b0 M
b0 Z
b0 [
b1101 /
b1101 \
b1101 }
b0 #
b0 W
b0 1
b0 |
17
1L
b0 N
b0 Y
b0 l
03
b111000 .
b10100000000100 B
b10100000000100 u
b10100000010000000000000 *
b10100000010000000000000 @
b10100000010000000000000 w
b0 D
b0 s
b0 A
b0 v
b101 C
b101 t
b101 0
b101 y
b0 2
b0 x
b0 4
b0 z
b0 E
b0 `
b10 F
b10 _
b100011 6
b100011 a
b10100000010000000100011 ?
b10100000010000000100011 p
b10100000010000000100011 r
b1110 o
b10100000010000000111000 -
b111000 5
b111100 )
b111100 P
b111000 $
b111000 Q
1!
#160000
0!
#165000
b1101 %
b1101 {
b1101 R
b1101 (
b1101 8
b1101 ]
b0 /
b0 \
b0 }
b1 ,
b1 n
19
13
07
1L
b111100 .
b10000000000000 B
b10000000000000 u
b10000000000000 *
b10000000000000 @
b10000000000000 w
b100000001110 D
b100000001110 s
b1111 A
b1111 v
b0 C
b0 t
b0 0
b0 y
b1111 4
b1111 z
b11 6
b11 a
b10011110000011 ?
b10011110000011 p
b10011110000011 r
b1111 o
b10000000111100 -
b111100 5
b1000000 )
b1000000 P
b111100 $
b111100 Q
1!
#170000
0!
#175000
1U
1T
1;
1<
0V
b10010001101000101000000000000 O
b10010001101000101000000000000 X
0+
b10010001101000101000000001011 '
b10010001101000101000000001011 M
b10010001101000101000000001011 Z
b10010001101000101000000001011 [
b10010001101000101000000000000 G
b0 (
b0 8
b0 ]
b10010001101000101000000000000 %
b10010001101000101000000000000 {
b10010001101000101000000000000 R
b11111111111111111111111111111011 /
b11111111111111111111111111111011 \
b11111111111111111111111111111011 }
b1011 #
b1011 W
b1011 1
b1011 |
1:
b11 ,
b11 n
09
1L
13
b1000000 .
b1000101100100100010 B
b1000101100100100010 u
b10010001101000101000000000000 *
b10010001101000101000000000000 @
b10010001101000101000000000000 w
b100110000 D
b100110000 s
b100110000 A
b100110000 v
b100100011 C
b100100011 t
b11 0
b11 y
b1000 2
b1000 x
b10000 4
b10000 z
b1001 E
b1001 `
b101 F
b101 _
b110111 6
b110111 a
b10010001101000101100000110111 ?
b10010001101000101100000110111 p
b10010001101000101100000110111 r
b10000 o
b10010001101000101000001000000 -
b1000000 5
b1000100 )
b1000100 P
b1000000 $
b1000000 Q
1!
#180000
0!
#185000
0U
0T
1V
0;
0<
1+
b0 '
b0 M
b0 Z
b0 [
b0 O
b0 X
b0 G
b1000100 %
b1000100 {
b1000100 R
b0 /
b0 \
b0 }
b0 #
b0 W
b0 1
b0 |
1K
0:
b11 ,
b11 n
0L
13
b1000100 .
b0 B
b0 u
b0 *
b0 @
b0 w
b100000010000 D
b100000010000 s
b10001 A
b10001 v
b0 C
b0 t
b0 0
b0 y
b0 2
b0 x
b10001 4
b10001 z
b0 E
b0 `
b0 F
b0 _
b10111 6
b10111 a
b100010010111 ?
b100010010111 p
b100010010111 r
b10001 o
b1000100 -
b1000100 5
b1001000 )
b1001000 P
b1000100 $
b1000100 Q
1!
#190000
0!
#195000
b1 G
1V
1&
b1010 O
b1010 X
1+
b0 '
b0 M
b0 Z
b0 [
1I
b1010 /
b1010 \
b1010 }
b1010 #
b1010 W
b1010 1
b1010 |
b1 N
b1 Y
b1 l
1J
0K
b0 ,
b0 n
03
b1010000 .
b1000100000000000 B
b1000100000000000 u
b100001000000000000000 *
b100001000000000000000 @
b100001000000000000000 w
b1000 D
b1000 s
b1000 A
b1000 v
b1 C
b1 t
b1 0
b1 y
b1 2
b1 x
b1000 4
b1000 z
b1100011 6
b1100011 a
b100001000010001100011 ?
b100001000010001100011 p
b100001000010001100011 r
b0 %
b0 {
b0 R
b10010 o
b100001000000001001000 -
b1001000 5
b1001100 )
b1001100 P
b1001000 $
b1001000 Q
1!
#200000
0!
#205000
b1100100 G
0&
1U
1T
0V
b1100100 %
b1100100 {
b1100100 R
b1100100 O
b1100100 X
0I
1;
1<
0+
b1100100 '
b1100100 M
b1100100 Z
b1100100 [
b10 /
b10 \
b10 }
b0 #
b0 W
b0 1
b0 |
1L
13
0J
b0 N
b0 Y
b0 l
b1010000 .
b1100100 B
b1100100 u
b110010000000000000000000000 *
b110010000000000000000000000 @
b110010000000000000000000000 w
b100001110010 D
b100001110010 s
b1110011 A
b1110011 v
b1100100 C
b1100100 t
b100 0
b100 y
b0 2
b0 x
b10011 4
b10011 z
b11 E
b11 `
b10011 6
b10011 a
b110010000000000100110010011 ?
b110010000000000100110010011 p
b110010000000000100110010011 r
b10100 o
b110010000000000000001010000 -
b1010000 5
b1010100 )
b1010100 P
b1010000 $
b1010000 Q
1!
#210000
0!
#215000
b1000 G
1&
b1011 '
b1011 M
b1011 Z
b1011 [
b1011 O
b1011 X
b1011000 %
b1011000 {
b1011000 R
b1011 /
b1011 \
b1011 }
1>
b10 ,
b10 n
0L
13
b1011100 .
b1000 B
b1000 u
b100000000000000000000000 *
b100000000000000000000000 @
b100000000000000000000000 w
b100000000000 D
b100000000000 s
b1 A
b1 v
b1000 C
b1000 t
b1000 0
b1000 y
b1 4
b1 z
b0 E
b0 `
b1101111 6
b1101111 a
b100000000000000011101111 ?
b100000000000000011101111 p
b100000000000000011101111 r
b10101 o
b100000000000000001010100 -
b1010100 5
b1011000 )
b1011000 P
b1010100 $
b1010100 Q
1!
#220000
0!
#225000
b1011000 G
b1011000 '
b1011000 M
b1011000 Z
b1011000 [
0&
b1011000 O
b1011000 X
b0 /
b0 \
b0 }
1L
0>
b0 ,
b0 n
13
b1011000 B
b1011000 u
b101100000000000000000000000 *
b101100000000000000000000000 @
b101100000000000000000000000 w
b100001010100 D
b100001010100 s
b1010101 A
b1010101 v
b1011000 C
b1011000 t
b11000 0
b11000 y
b10101 4
b10101 z
b10 E
b10 `
b10011 6
b10011 a
b101100000000000101010010011 ?
b101100000000000101010010011 p
b101100000000000101010010011 r
b1011100 .
b10111 o
b101100000000000000001011100 -
b1011100 5
b1011000 %
b1011000 {
b1011000 R
b1100000 )
b1100000 P
b1011100 $
b1011100 Q
1!
#230000
0!
#235000
b110111 %
b110111 {
b110111 R
b110111 '
b110111 M
b110111 Z
b110111 [
b110111 O
b110111 X
b110111 G
1L
13
b1100000 .
b100000110110 B
b100000110110 u
b11011100000000000000000000 *
b11011100000000000000000000 @
b11011100000000000000000000 w
b110110 D
b110110 s
b110110 A
b110110 v
b110111 C
b110111 t
b10111 0
b10111 y
b10110 4
b10110 z
b1 E
b1 `
b11011100000000101100010011 ?
b11011100000000101100010011 p
b11011100000000101100010011 r
b11000 o
b11011100000000000001100000 -
b1100000 5
b1100100 )
b1100100 P
b1100000 $
b1100000 Q
1!
#240000
0!
#245000
0U
0T
1V
b0 %
b0 {
b0 R
0;
0<
1+
b0 '
b0 M
b0 Z
b0 [
b0 O
b0 X
b0 G
1L
13
b1100100 .
b0 B
b0 u
b0 *
b0 @
b0 w
b0 D
b0 s
b0 A
b0 v
b0 C
b0 t
b0 0
b0 y
b0 4
b0 z
b0 E
b0 `
b10011 ?
b10011 p
b10011 r
b11001 o
b1100100 -
b1100100 5
b1101000 )
b1101000 P
b1100100 $
b1100100 Q
1!
#250000
0!
#255000
b1101000 .
b11010 o
b1101000 -
b1101000 5
b1101100 )
b1101100 P
b1101000 $
b1101000 Q
1!
#260000
0!
#265000
b1101100 .
b11011 o
b1101100 -
b1101100 5
b1110000 )
b1110000 P
b1101100 $
b1101100 Q
1!
#270000
0!
#275000
b1110000 .
b11100 o
b1110000 -
b1110000 5
b1110100 )
b1110100 P
b1110000 $
b1110000 Q
1!
#280000
0!
#285000
b1110100 .
b11101 o
b1110100 -
b1110100 5
b1111000 )
b1111000 P
b1110100 $
b1110100 Q
1!
#290000
0!
#295000
b1111000 .
b11110 o
b1111000 -
b1111000 5
b1111100 )
b1111100 P
b1111000 $
b1111000 Q
1!
#300000
0!
#305000
b1111100 .
b11111 o
b1111100 -
b1111100 5
b10000000 )
b10000000 P
b1111100 $
b1111100 Q
1!
#310000
0!
#315000
b10000000 .
b100000 o
b10000000 -
b10000000 5
b10000100 )
b10000100 P
b10000000 $
b10000000 Q
1!
#320000
0!
#325000
b10000100 .
b100001 o
b10000100 -
b10000100 5
b10001000 )
b10001000 P
b10000100 $
b10000100 Q
1!
#330000
0!
#335000
b10001000 .
b100010 o
b10001000 -
b10001000 5
b10001100 )
b10001100 P
b10001000 $
b10001000 Q
1!
#340000
0!
#345000
b10001100 .
b100011 o
b10001100 -
b10001100 5
b10010000 )
b10010000 P
b10001100 $
b10001100 Q
1!
#350000
0!
#355000
b10010000 .
b100100 o
b10010000 -
b10010000 5
b10010100 )
b10010100 P
b10010000 $
b10010000 Q
1!
#360000
0!
#365000
b10010100 .
b100101 o
b10010100 -
b10010100 5
b10011000 )
b10011000 P
b10010100 $
b10010100 Q
1!
#370000
0!
#375000
b10011000 .
b100110 o
b10011000 -
b10011000 5
b10011100 )
b10011100 P
b10011000 $
b10011000 Q
1!
#380000
0!
#385000
b10011100 .
b100111 o
b10011100 -
b10011100 5
b10100000 )
b10100000 P
b10011100 $
b10011100 Q
1!
#390000
0!
#395000
b10100000 .
b101000 o
b10100000 -
b10100000 5
b10100100 )
b10100100 P
b10100000 $
b10100000 Q
1!
#400000
0!
#405000
b10100100 .
b101001 o
b10100100 -
b10100100 5
b10101000 )
b10101000 P
b10100100 $
b10100100 Q
1!
#410000
0!
#415000
b10101000 .
b101010 o
b10101000 -
b10101000 5
b10101100 )
b10101100 P
b10101000 $
b10101000 Q
1!
#420000
0!
#425000
b10101100 .
b101011 o
b10101100 -
b10101100 5
b10110000 )
b10110000 P
b10101100 $
b10101100 Q
1!
#430000
0!
#435000
b10110000 .
b101100 o
b10110000 -
b10110000 5
b10110100 )
b10110100 P
b10110000 $
b10110000 Q
1!
#440000
0!
#445000
b10110100 .
b101101 o
b10110100 -
b10110100 5
b10111000 )
b10111000 P
b10110100 $
b10110100 Q
1!
#450000
0!
#455000
b10111000 .
b101110 o
b10111000 -
b10111000 5
b10111100 )
b10111100 P
b10111000 $
b10111000 Q
1!
#460000
0!
#465000
b10111100 .
b101111 o
b10111100 -
b10111100 5
b11000000 )
b11000000 P
b10111100 $
b10111100 Q
1!
#470000
0!
#475000
b11000000 .
b110000 o
b11000000 -
b11000000 5
b11000100 )
b11000100 P
b11000000 $
b11000000 Q
1!
#480000
0!
#485000
b11000100 .
b110001 o
b11000100 -
b11000100 5
b11001000 )
b11001000 P
b11000100 $
b11000100 Q
1!
#490000
0!
#495000
b11001000 .
b110010 o
b11001000 -
b11001000 5
b11001100 )
b11001100 P
b11001000 $
b11001000 Q
1!
#500000
0!
#505000
b11001100 .
b110011 o
b11001100 -
b11001100 5
b11010000 )
b11010000 P
b11001100 $
b11001100 Q
1!
#510000
0!
#515000
b11010000 .
b110100 o
b11010000 -
b11010000 5
b11010100 )
b11010100 P
b11010000 $
b11010000 Q
1!
#520000
0!
#525000
b11010100 .
b110101 o
b11010100 -
b11010100 5
b11011000 )
b11011000 P
b11010100 $
b11010100 Q
1!
#530000
0!
#535000
b11011000 .
b110110 o
b11011000 -
b11011000 5
b11011100 )
b11011100 P
b11011000 $
b11011000 Q
1!
#540000
0!
#545000
b11011100 .
b110111 o
b11011100 -
b11011100 5
b11100000 )
b11100000 P
b11011100 $
b11011100 Q
1!
#550000
0!
#555000
b11100000 .
b111000 o
b11100000 -
b11100000 5
b11100100 )
b11100100 P
b11100000 $
b11100000 Q
1!
#560000
0!
#565000
b11100100 .
b111001 o
b11100100 -
b11100100 5
b11101000 )
b11101000 P
b11100100 $
b11100100 Q
1!
#570000
0!
#575000
b11101000 .
b111010 o
b11101000 -
b11101000 5
b11101100 )
b11101100 P
b11101000 $
b11101000 Q
1!
#580000
0!
#585000
b11101100 .
b111011 o
b11101100 -
b11101100 5
b11110000 )
b11110000 P
b11101100 $
b11101100 Q
1!
#590000
0!
#595000
b11110000 .
b111100 o
b11110000 -
b11110000 5
b11110100 )
b11110100 P
b11110000 $
b11110000 Q
1!
#600000
0!
#605000
b11110100 .
b111101 o
b11110100 -
b11110100 5
b11111000 )
b11111000 P
b11110100 $
b11110100 Q
1!
#610000
0!
#615000
b11111000 .
b111110 o
b11111000 -
b11111000 5
b11111100 )
b11111100 P
b11111000 $
b11111000 Q
1!
#620000
0!
#625000
b11111100 .
b111111 o
b11111100 -
b11111100 5
b100000000 )
b100000000 P
b11111100 $
b11111100 Q
1!
#630000
0!
#635000
b100000000 .
b1000000 o
b100000000 -
b100000000 5
b100000100 )
b100000100 P
b100000000 $
b100000000 Q
1!
#640000
0!
#645000
b100000100 .
b1000001 o
b100000100 -
b100000100 5
b100001000 )
b100001000 P
b100000100 $
b100000100 Q
1!
#650000
0!
#655000
b100001000 .
b1000010 o
b100001000 -
b100001000 5
b100001100 )
b100001100 P
b100001000 $
b100001000 Q
1!
#660000
0!
#665000
b100001100 .
b1000011 o
b100001100 -
b100001100 5
b100010000 )
b100010000 P
b100001100 $
b100001100 Q
1!
#670000
0!
#675000
b100010000 .
b1000100 o
b100010000 -
b100010000 5
b100010100 )
b100010100 P
b100010000 $
b100010000 Q
1!
#680000
0!
#685000
b100010100 .
b1000101 o
b100010100 -
b100010100 5
b100011000 )
b100011000 P
b100010100 $
b100010100 Q
1!
#690000
0!
#695000
b100011000 .
b1000110 o
b100011000 -
b100011000 5
b100011100 )
b100011100 P
b100011000 $
b100011000 Q
1!
#700000
0!
#705000
b100011100 .
b1000111 o
b100011100 -
b100011100 5
b100100000 )
b100100000 P
b100011100 $
b100011100 Q
1!
#710000
0!
#715000
b100100000 .
b1001000 o
b100100000 -
b100100000 5
b100100100 )
b100100100 P
b100100000 $
b100100000 Q
1!
#720000
0!
#725000
b100100100 .
b1001001 o
b100100100 -
b100100100 5
b100101000 )
b100101000 P
b100100100 $
b100100100 Q
1!
#730000
0!
#735000
b100101000 .
b1001010 o
b100101000 -
b100101000 5
b100101100 )
b100101100 P
b100101000 $
b100101000 Q
1!
#740000
0!
#745000
b100101100 .
b1001011 o
b100101100 -
b100101100 5
b100110000 )
b100110000 P
b100101100 $
b100101100 Q
1!
#750000
0!
#755000
b100110000 .
b1001100 o
b100110000 -
b100110000 5
b100110100 )
b100110100 P
b100110000 $
b100110000 Q
1!
#760000
0!
#765000
b100110100 .
b1001101 o
b100110100 -
b100110100 5
b100111000 )
b100111000 P
b100110100 $
b100110100 Q
1!
#770000
0!
#775000
b100111000 .
b1001110 o
b100111000 -
b100111000 5
b100111100 )
b100111100 P
b100111000 $
b100111000 Q
1!
#780000
0!
#785000
b100111100 .
b1001111 o
b100111100 -
b100111100 5
b101000000 )
b101000000 P
b100111100 $
b100111100 Q
1!
#790000
0!
#795000
b101000000 .
b1010000 o
b101000000 -
b101000000 5
b101000100 )
b101000100 P
b101000000 $
b101000000 Q
1!
#800000
0!
